The new stuff we want to do in pico roulete

-skins pg 1

-characters pg 2

- mechanics pg 3




---------------------------------
Skins page 1
---------------------------------
The skins you can choice either
by pressing the arrows or if 
the player has allready choosed it.

-----------------------
Team pico
-----------------------
Pico's skins (Regular,Otis, Piconjo)
Nene (regular, Christmass outfit, Japanese ww2 figher)
Darnell (regular, 1st darnell's friend, 2nd darnell's friend)
-----------------------
Team Uber kids
-----------------------
Uber clone (Regular,red,green)
-----------------------
Team goth kids
-----------------------
Cansandra (Regular,penalian, damian)
Allucard (Regular,Osmo, Prisoner outfit)
Cyclops (Regular,his cousin, Undead)
Hanzo (Regular,Resurrected, Hanzo Hattori inspired)
-----------------------
Team ghetto bots
-----------------------
Leroy (Regular,Santa dogg, Black panther)
jose (Regular,pico 2, cool ass "its just colored gold n shit bling bling yo!")
roc (Regular,Gym owner, Unnamed associate of the dj)

-----------------------
Special
-----------------------
Reptile "The lizard ninja" (Regular,Hell demon "scorpion", Tundra warrior "sub-zero")

---------------------------------
Characters page 2
---------------------------------
The new characters that adds to the new team section or adds a new team entiraity

-------------------------------------
new characters added to teams
------------------------------------

---------------------------
pico
---------------------------
Boyfriend. Special guest from friday night funkin (When he wins he will do a peace pose, loses He will do the miss pose, When draw he will do a angry face) (death round, he will be bo bop the deathround music, when survived he will ba bee boo bop if killed he will turn into a skeleton. (skins normal,angel, ritz)
(when clicked on, He will do a random bee bo bop from one of the fnf songs) 

---------------------------
Goth kids
---------------------------
Spike (When wins, he grins like an asshole, when loses he gets pissed off, when draw he gets confused) (Death round, When he prays with one 
hand while attempting to use the gun with the other, When he survives he will say "thank you god!" if killed He will grow angel wings and a halo
and flys up to haven) (skins normal, the Record store owner in Pico 2 and DJ) (when clicked on, he will say a random quote from pico 2)

pierre (When wins, he takes a puff from his smoke stick, when lost, his eyes will pop out from his glasses, when draw he gets pissed off) (Death round, He inhales from his smoke stick alot while hes pulling the trigger
, When he survives he will exhale the smoke if killed His head will pop and release all the smokes he has.) (skins normal, Excess postage (postal dude skin) and frenchy french (makes pierre wear french styled clothing and his smoke stick is now a 
baggete) (when clicked on, he will smoke from the smoke stick)

---------------------------
Special
---------------------------
Timmy (When wins, he will get up in joy, when loses he will pray, when draw he will say "phew") (Death round, When he prays with one 
hand while attempting to use the gun with the other, When he survives he will say "thank you god!" if killed He will grow angel wings and a halo
and flys up to haven) (skins normal, the Record store owner in Pico 2 and DJ) (when clicked on, he will say a random quote from pico 2)


-------------------------------------
Added to the pico roullete's roaster
------------------------------------

---------------------------
G-squad
---------------------------

---------------------------
Cat splendidly stupid four (special guest)
---------------------------

---------------------------
Technoid squad (special guest)
---------------------------


---------------------------------
Mechanics page 3
---------------------------------

---------------------------------
Mechanics page 3
---------------------------------
